<?xml version="1.0" encoding="UTF-8" standalone="no"?>
<svg height="48px" width="48px">
<path id="r1" style="fill:#dd0000;fill-opacity:1;stroke:#000000;stroke-width:1;stroke-opacity:1;"
d="M 42.9,35.8 L 30,22.9 L 43,9.9 C 43,9.9 36.7,3.3 36.7,3.3 L 23.5,16.3 L 10.5,3.5 C 10.5,3.5 4,9.6 4,9.6 L 16.9,22.9 L 4,35.9 C 4,35.9 10.2,42.4 10.2,42.4 L 23.5,29.4 L 36.5,42.3 C 36.5,42.3 42.9,35.8 42.9,35.8 z"/>
</svg>
