<?xml version="1.0" encoding="UTF-8" standalone="no"?>
<svg height="48" width="48">
<path id="p1" style="fill:#aaaaaa;stroke:#000000"
d="M 31.5,3.5 L 41.5,14.5 V 44.5 H 6.5 V 3.5 Z"/>
<path id="r9" style="fill:#555555;stroke:none"
 d="M 11 9.1 L 11 18.4 L 11 20 L 11 22 L 11 30 L 11 36 L 11 38 L 23.8 38 L 23.8 36 L 37.1 36 L 37.1 22 L 37.125 18.4 L 37.1 14.5 L 31.2 14.5 L 31.2 9.1 L 11 9.1 z"/>
<path id="p5" style="fill:none;stroke:#000000"
d="M 31.5,3.5 V 14.5 H 41.5" />
<path id="1" style="opacity:1;fill:#f9f400;stroke:#000000;stroke-width:1"
d="M 38.7,19 L 35.8,13.3 L 29.5,12.4 L 34,7.9 L 32.8,1.6 L 38.5,4.5 L 44.1,1.5 L 43.1,7.8 L 47.8,12.2 L 41.5,13.2 Z" />
</svg>
<!-- Lapo Calamandrei - Jakub Steiner -->
