<?xml version="1.0" encoding="UTF-8" standalone="no"?>
<svg width="48" height="48">
<circle id="e1" style="fill:#77cc33;stroke:none;opacity:1" cx="24" cy="24" r="22.5"/>
<path id="b" style="fill:#555555;stroke:none;opacity:1" d="M 21.3,8.4 L 40.5,25 L 21.3,41.7 L 21.3,34 L 11.9,34 L 11.9,16.1 L 21.3,16.1 L 21.3,8.4 z"/>
</svg>
