<?xml version="1.0" encoding="UTF-8" standalone="no"?>
<svg height="48" width="48" id="svg2" version="1.1">
<path id="1" style="fill:#00a700;stroke:#000000;stroke-width:1"
d="m 19.4,23.6 0,-11 11.1,0 0,-5.5 17,11 -17.1,11.2 0,-5.7 -11.1,0 z"/>
<path id="2" style="fill:#00a700;stroke:#000000;stroke-width:1"
d="m 29.1,37.5 0,-11 -11.2,0 0,-5.5 L 0.8,32 17.98267,43.2 l 0,-5.7 11.2,0 z"/>
<!-- Jakub Steiner -->
</svg>
