<?xml version="1.0" encoding="UTF-8" standalone="no"?>
<svg width="48" height="48">
<path id="1" style="fill:#555555;stroke:#000000"
d="M 46,6 L 42,6 L 42,1 L 7,1 L 7,42 L 42,42 L 42,21 L 46,21 L 46,6 z"/>
<path id="2" style="fill:#7272FF;stroke:#000000"
d="M 36,6 L 36,47 L 6,42 L 6,1 L 36,6 z"/>
<path id="3" style="fill:#555555;stroke:none"
d="M 16.75,24.5 V 15 H 26.25 V 24.5 H 31 L 21.5,34 L 12,24.5 Z"/>
</svg>
