<?xml version="1.0" encoding="UTF-8" standalone="no"?>
<svg width="500" height="500" id="svg2" version="1.0" >
<g id="g0" transform="matrix(1.1,0,0,1.0999817,-25.466746,-25.013311)">
<path id="1" style="fill:#ffffff;stroke:none"
d="m 23.151587,48.267439 293.106033,0.869752 c 62.93724,-3.76465 156.7447,55.993499 157.42483,146.118139 l 6e-5,254.83698 -247.00924,1.7395 C 170.88613,452.47059 78.856126,401.33017 77.945887,310.93216 l -1.739502,-124.37434 -51.315296,0 z" />
<path id="2" style="fill:#ffffff;opacity:1;stroke:none"
d="m 23.1516,48.26744 293.10597,0.86974 c 69.2239,-0.24417 156.7449,55.9935 157.4247,146.11815 l 0,254.83696 -247.0091,1.7396 c -55.7872,0.6386 -147.81708,-50.5017 -148.72732,-140.89974 l -1.73949,-124.37434 -51.3153,0 z" />
<path id="3" style="fill:#77cc33;opacity:1;stroke:none;display:inline"
d="M 64.029876,86.536464 302.3416,87.406206 c 68.34612,-0.794344 135.38908,31.894354 134.81135,123.504634 l -0.86972,162.6434 c 0.48759,35.21619 -14.70609,42.55722 -42.61785,40.87834 l -150.46686,0.86971 C 149.21357,417.35108 117.87142,341.67766 117.08467,287.4489 l 0,-103.50035 c 0.51691,-38.38265 -20.275759,-38.77194 -53.054794,-37.3993 z" />
<path id="5" style="fill:#ffffff;opacity:1;stroke:none;display:inline"
d="m 145.85267,124.13381 36.2652,0.10333 0.1981,174.51848 c 1.481,40.40308 31.1259,43.79491 54.7944,42.61783 l 87.8448,0 c 32.6373,-0.74347 50.1855,-15.63294 50.1421,-47.01452 l -0.6142,-85.8824 c -0.8613,-23.42239 -42.0679,-20.88366 -41.6522,1.22882 l 0.056,82.65096 -34.5826,0 -0.3111,-83.18498 c -0.1955,-19.04457 -43.0832,-26.85764 -43.3358,3.22366 l 0.718,80.67946 -36.8327,-0.10375 0.048,-82.52259 c 0.092,-18.99447 13.9862,-41.73785 35.1971,-51.40525 16.9717,-7.73517 39.6495,-8.88645 61.3933,11.54834 19.45,-20.65294 52.2716,-20.94446 69.4837,-7.75797 10.967,8.40232 25.6724,17.8956 26.0851,43.98417 l 1.2289,90.55779 c 0.3181,47.86238 -27.7838,79.8189 -69.6279,79.658 l -118.5416,0.1518 c -52.966,0.2003 -78.57805,-36.79577 -77.7091,-85.23567 z" />
<path id="6" style="opacity:1;fill:#ffffff;fill-opacity:1;stroke:none;display:inline"
d="m 407.93861,296.64533 c 0.31803,47.86235 -26.04973,77.92308 -67.8938,77.76223 l -77.80062,-0.81105 -4.34639,3.54519 84.45106,-0.12288 c 41.84408,0.16084 69.96173,-31.79629 69.64371,-79.65864 l -0.0614,-4.48521 z" />
</g>
</svg>
