<?xml version="1.0" encoding="UTF-8" standalone="no"?>
<svg
   width="48"
   height="48"
   id="svg2"
   version="1.0"
   sodipodi:modified="true">
  <defs
     id="defs4">
    <inkscape:perspective
       id="perspective93" />
  </defs>
  <sodipodi:namedview
     id="base"
     pagecolor="#ffffff"
     bordercolor="#666666"
     borderopacity="1.0"
     gridtolerance="10000"
     guidetolerance="10"
     objecttolerance="10"
     width="48px"
     height="48px"
     showgrid="false" />
  <metadata
     id="metadata7">
    <rdf:RDF>
      <cc:Work
         rdf:about="">
        <dc:format>image/svg+xml</dc:format>
        <dc:type
           rdf:resource="http://purl.org/dc/dcmitype/StillImage" />
      </cc:Work>
    </rdf:RDF>
  </metadata>
  <g
     inkscape:label="Layer 1"
     inkscape:groupmode="layer"
     id="layer1">
    <path
       style="opacity:1;color:#000000;fill:#555555;fill-opacity:1;fill-rule:nonzero;stroke:#000000;stroke-width:1.18385637000000021;stroke-linecap:round;stroke-linejoin:miter;marker:none;marker-start:none;marker-mid:none;marker-end:none;stroke-miterlimit:4;stroke-dasharray:none;stroke-dashoffset:0;stroke-opacity:1;visibility:visible;display:inline;overflow:visible;enable-background:accumulate"
       d="M 24.86578,3.7838231 C 15.515121,3.7838231 7.9341102,6.3802426 7.9341102,9.6054799 C 7.9341102,11.590887 9.7252289,35.789379 9.7252289,37.774786 C 9.7252289,41.000023 15.515121,43.627743 24.86578,43.627742 C 34.216439,43.627742 40.034318,41.000023 40.034316,37.774786 C 40.034316,35.934729 41.825436,11.445537 41.825435,9.6054799 C 41.825435,6.3802426 34.216439,3.7838231 24.86578,3.7838231 z "
       id="path3511"
       sodipodi:nodetypes="csssssc" />
    <path
       transform="matrix(0.956226,0,0,1.0694236,0.8692273,-3.6887581)"
       sodipodi:type="arc"
       style="opacity:1;color:#000000;fill:none;fill-opacity:1;fill-rule:nonzero;stroke:none;stroke-width:1.17069519;stroke-linecap:round;stroke-linejoin:miter;marker:none;marker-start:none;marker-mid:none;marker-end:none;stroke-miterlimit:4;stroke-dasharray:none;stroke-dashoffset:0;stroke-opacity:1;visibility:visible;display:inline;overflow:visible;enable-background:accumulate"
       id="path3589"
       sodipodi:cx="25.102291"
       sodipodi:cy="10.169787"
       sodipodi:rx="18.915106"
       sodipodi:ry="5.833631"
       d="M 44.017397 10.169787 A 18.915106 5.833631 0 1 1  6.1871853,10.169787 A 18.915106 5.833631 0 1 1  44.017397 10.169787 z" />
    <path
       d="M 44.017397,10.169787 A 18.915106,5.833631 0 1 1 6.1871853,10.169787 A 18.915106,5.833631 0 1 1 44.017397,10.169787 z"
       sodipodi:ry="5.833631"
       sodipodi:rx="18.915106"
       sodipodi:cy="10.169787"
       sodipodi:cx="25.102291"
       id="path3547"
       style="opacity:1;fill:#77cc33;fill-opacity:1;fill-rule:nonzero;stroke:#000000;stroke-width:1.38446438000000005;stroke-linecap:round;stroke-linejoin:miter;marker:none;marker-start:none;marker-mid:none;marker-end:none;stroke-miterlimit:4;stroke-dasharray:none;stroke-dashoffset:0;stroke-opacity:1;visibility:visible;display:inline;overflow:visible;enable-background:accumulate"
       sodipodi:type="arc"
       transform="matrix(0.7573952,0,0,0.6992744,5.777304,2.8178321)" />
  </g>
</svg>
