<?xml version="1.0" standalone="no"?>
<svg width="48" height="48" id="svg2" version="1.0">

<path id="a01"
style="fill:#555555;stroke:#000000;fill-rule:none;clip-rule:nonzero;stroke-miterlimit:4;fill-opacity:1;"
d="M 46,6 L 42,6 L 42,1 L 7,1 L 7,42 L 42,42 L 42,21 L 46,21 L 46,6 z"/>

<path id="a02"
style="fill:#77cc33;stroke:#000000;fill-rule:none;clip-rule:nonzero;stroke-miterlimit:4;fill-opacity:1;"
d="M 36,6 L 36,47 L 6,42 L 6,1 L 36,6 z"/>

</svg>
