<?xml version="1.0" encoding="UTF-8" standalone="no"?>
<svg width="48" height="48">
<rect id="0" style="fill:#aaaaaa;opacity:1;stroke:#000000;stroke-width:1" width="2.3" height="5.2" x="31.3" y="0.6" />
<rect id="1" style="fill:#555555;opacity:1;stroke:#000000;stroke-width:1" width="26.3" height="38.9" x="10.8" y="5.4" />
<rect id="2" style="fill:#B2B2B2;opacity:1;stroke:#000000;stroke-width:1" y="7.9" x="13.2" height="33.6" width="21.8" />
<!-- Lapo Calamandrei -->
</svg>


