<?xml version="1.0" encoding="UTF-8" standalone="no"?>
<svg width="48" height="48">
<circle id="e1" style="fill:#D62839;stroke:none;opacity:1" cx="24" cy="24" r="22.5" />
<path id="r1" style="fill:#555555;fill-opacity:1;stroke:none"
d="M 17.9,9.3 L 34.9,24 L 34.9,15.6 L 39.5,15.6 L 39.5,34.6 L 34.9,34.6 L 34.9,26.2 L 17.9,40.9 L 17.9,33.6 L 9,33.6 L 9,16.6 L 17.9,16.6 L 17.9,9.3 z" />
</svg>
