<?xml version="1.0" encoding="UTF-8" standalone="no"?>
<svg height="48px" width="48px">
<path id="1" style="fill:#DD0000;opacity:1;stroke:#000000;stroke-width:1" d="M 24 1.5 C 11.6 1.5 1.6 11.5 1.6 23.8 C 1.6 36.2 11.6 46.2 24 46.2 C 36.3 46.2 46.3 36.2 46.3 23.8 C 46.3 11.5 36.3 1.5 24 1.5 z M 23.8 10.9 C 30.8 10.9 36.5 16.6 36.5 23.6 C 36.5 30.6 30.8 36.3 23.8 36.3 C 16.8 36.3 11.1 30.6 11.1 23.6 C 11.1 16.6 16.8 10.9 23.8 10.9 z M 18.9 13.4 L 18.9 33.9 L 28.5 33.9 L 28.5 13.4 L 18.9 13.4 z"/>
</svg>



