<?xml version="1.0" encoding="UTF-8" standalone="no"?>
<svg width="48" height="48">
<path id="1" style="fill:#B2B2B2;opacity:1;stroke:none"
d="M 14.8,9.6 L 9.55,14.8 L 19.2,24.5 L 9.6,34.2 L 14.8,39.45 L 24.5,29.8 L 34.2,39.45 L 39.45,34.2 L 29.8,24.5 L 39.45,14.8 L 34.2,9.6 L 24.5,19.2 L 14.8,9.6 z"/>
</svg>
