<?xml version="1.0" encoding="UTF-8" standalone="no"?>
<svg width="48" height="48" id="svg2" version="1.0">

<path id="1" style="display:inline;fill:#ff6309;fill-opacity:1;stroke:#ff6309;stroke-width:1;stroke-opacity:1"
d="m 5.5,20 a 4,4 0 0 0 -4,4 4,4 0 0 0 4,4 4,4 0 0 0 4,-4 4,4 0 0 0 -4,-4 z"/>

<path id="2" style="display:inline;fill:#ff6309;fill-opacity:1;stroke:#ff6309;stroke-width:1;stroke-opacity:1"
d="m 25.625001,5.5 c -1.991182,0.147215 -3.889053,0.6454935 -5.656251,1.375 l 3.562501,6.125 c 0.914092,-0.289943 1.87412,-0.449211 2.874999,-0.5 0.195918,-0.0099 0.395378,0 0.593751,0 5.488317,0 10.075827,3.854394 11.21875,9 l 7.125,0 c -0.506086,-3.74055 -2.133469,-7.126795 -4.53125,-9.8125 -0.984762,0.529 -2.117075,0.8125 -3.312501,0.8125 -3.753306,0 -6.827399,-2.9453734 -7,-6.6562499 -1.129597,-0.2158237 -2.308269,-0.3437501 -3.5,-0.3437501 -0.239343,4e-7 -0.481603,-0.00902 -0.718751,0 -0.0772,0.00294 -0.141798,-0.00388 -0.21875,0 -0.0725,0.00366 -0.146437,-0.0045 -0.21875,0 -0.07,0.00436 -0.148884,-0.00517 -0.218749,0 z"/>

<path id="3" style="display:inline;fill:#ffb515;fill-opacity:1;stroke:#ffb515;stroke-width:1;stroke-opacity:1"
d="m 15.65625,9.375 c -2.871777,2.23597 -5.052286,5.315693 -6.2187499,8.84375 C 11.28,19.48 12.5,21.6 12.5,24 c 0,2.4 -1.219966,4.519943 -3.0624999,5.78125 1.1660759,3.528915 3.3459699,6.609992 6.2187499,8.84375 l 3.5625,-6.15625 C 16.935187,30.367002 15.5,27.345098 15.5,23.999998 c 0,-3.343892 1.437962,-6.361772 3.71875,-8.468749 l -3.5625,-6.15625 z"/>

<path id="4" style="display:inline;fill:#ffb515;fill-opacity:1;stroke:#ffb515;stroke-width:1;stroke-opacity:1"
d="m 37.5,38.5 a 4,4 0 0 0 -4,4 4,4 0 0 0 4,4 4,4 0 0 0 4,-4 4,4 0 0 0 -4,-4 z"/>

<path id="5" style="display:inline;fill:#c90016;fill-opacity:1;stroke:#c90016;stroke-width:1;stroke-opacity:1"
d="m 37.5,1.5 a 4,4 0 0 0 -4,4 4,4 0 0 0 4,4 4,4 0 0 0 4,-4 4,4 0 0 0 -4,-4 z"/>

<path id="6" style="display:inline;fill:#c90016;fill-opacity:1;stroke:#c90016;stroke-width:1;stroke-opacity:1"
d="m 38.218751,26.5 c -1.142919,5.145606 -5.730433,9 -11.21875,9 -1.215047,3e-6 -2.372,-0.183534 -3.46875,-0.53125 l -3.562501,6.125 c 2.170152,0.89591 4.538154,1.40625 7.031251,1.40625 1.191731,0 2.370403,-0.127926 3.5,-0.34375 0.174003,-3.555135 3.021842,-6.431595 6.5625,-6.65625 0.148573,-0.0094 0.286564,2e-6 0.437499,0 1.195428,2e-6 2.327738,0.283493 3.312501,0.8125 2.397784,-2.685704 4.025164,-6.071949 4.53125,-9.8125 l -7.125,0 z"/>

</svg>
