<?xml version="1.0" encoding="UTF-8" standalone="no"?>
<svg height="48" width="48">
<rect id="01" style="fill:#aaaaaa;opacity:1;stroke:#000000;stroke-width:1"
rx="0" ry="0" y="3.6" x="6.6" height="40.9" width="34.8"/>
<path id="11" style="fill:#c8c8c8;opacity:1;stroke:none"
d="M 16.6 34.2 L 16.6 35.2 L 16.6 36.2 L 16.6 37.2 L 16.6 38.2 L 16.6 39.1 L 16.6 39.2 L 35.7 39.2 L 36.6 39.2 L 36.7 39.2 L 36.7 34.3 L 36.6 34.3 L 36.6 34.2 L 17.6 34.2 L 16.6 34.2 z M 17.6 35.2 L 35.7 35.2 L 35.7 36.2 L 17.6 36.2 L 17.6 35.2 z M 17.6 37.2 L 35.7 37.2 L 35.7 38.2 L 17.6 38.2 L 17.6 37.2 z "/>

<use id="u01" x="0" y="0" xlink:href="#11" transform="translate(0,-24)" width="48" height="48"/>
<use id="u02" x="0" y="0" xlink:href="#11" transform="translate(0,-16)" width="48" height="48"/>
<use id="u03" x="0" y="0" xlink:href="#11" transform="translate(0,-8)" width="48" height="48"/>

<path id="16" style="fill:#000000;opacity:1;stroke:none"
d="M 33.6,24.5 L 33.6,24.6 L 33.6,29.5 C 33.6,30 33.3,30.4 32.6,30.4 C 32,30.4 31.7,30.2 31.6,29.8 C 31.6,29.4 31.9,29.2 32.5,29.2 C 32.8,29.2 33.1,29.3 33.3,29.4 L 33.3,29.4 L 33.3,26.8 L 29.9,26.8 L 29.9,29.5 C 29.9,30 29.6,30.3 28.9,30.4 L 28.9,30.4 C 28.3,30.4 27.9,30.2 27.9,29.7 C 27.9,29.4 28.2,29.2 28.8,29.2 C 29.1,29.2 29.4,29.3 29.6,29.4 L 29.6,24.5 L 33.6,24.5 M 29.9,25.4 L 29.9,26 L 33.3,26 L 33.3,25.4 L 29.9,25.4"/>
<path id="17" style="fill:#000000;opacity:1;stroke:none"
d="M 36,7.8 L 36.3,7.8 L 36.3,7.9 L 36.3,12.9 C 36.3,13.3 36.1,13.6 35.5,13.7 L 35.4,13.7 L 35.2,13.7 C 34.7,13.7 34.4,13.5 34.3,13.2 L 34.3,13.1 C 34.3,12.7 34.5,12.5 35.1,12.5 L 35.2,12.4 C 35.5,12.4 35.7,12.5 36,12.7 L 36,12.7 L 36,7.9 L 36,7.8"/>
<path id="19" style="fill:#000000;opacity:1;stroke:none"
d="M 30.3,8.5 L 33,9.3 L 33,9.4 L 33,14.4 C 33,14.8 32.7,15.1 32.2,15.2 L 32,15.2 C 31.5,15.2 31.2,15 31.2,14.6 L 31.2,14.5 C 31.2,14.2 31.4,14 31.9,14 L 32,14 C 32.3,14 32.5,14 32.7,14.2 L 32.7,10.1 L 30.6,9.5 L 30.6,13.6 C 30.6,14 30.4,14.2 30,14.4 L 29.7,14.4 L 29.6,14.4 C 29,14.4 28.8,14.2 28.8,13.8 L 28.8,13.8 C 28.8,13.5 29,13.2 29.4,13.2 L 29.6,13.1 C 29.8,13.1 30,13.2 30.3,13.4 L 30.3,8.6 L 30.3,8.5"/>
<path id="29" style="fill:#000000;opacity:1;stroke:none"
d="M 31,16.4 L 31.3,16.4 L 31.4,16.5 L 31.4,16.6 C 31.5,16.8 31.7,16.9 32.2,17.1 C 32.8,17.3 33.1,17.5 33.1,17.9 C 33.1,18.3 32.9,18.6 32.6,18.8 L 32.6,18.8 L 32.5,18.7 C 32.6,18.6 32.7,18.4 32.7,18.2 C 32.7,18 32.4,17.8 31.8,17.6 C 31.6,17.5 31.4,17.4 31.4,17.4 L 31.4,21.5 C 31.4,21.9 31.1,22.2 30.5,22.3 L 30.3,22.3 C 29.7,22.3 29.3,22.1 29.3,21.6 C 29.3,21.3 29.6,21.1 30.2,21 L 30.3,21 C 30.5,21 30.7,21.1 31,21.3 L 31,16.5 L 31,16.4"/>
<path id="37" style="fill:#000000;opacity:1;stroke:none"
d="M 20,35 L 20,34.5 L 19.9,34.5 L 19.9,34.1 L 20,34.1 L 20,33.3 L 20.2,33.3 L 20.2,34.1 L 20.4,34 L 20.4,33.2 L 20.5,33.2 L 20.5,34 L 20.7,33.9 L 20.7,34.3 L 20.5,34.4 L 20.5,34.9 L 20.7,34.9 L 20.7,35.3 L 20.5,35.3 L 20.5,36.1 L 20.4,36.1 L 20.4,35.4 L 20.2,35.4 L 20.2,36.2 L 20,36.2 L 20,35.5 L 19.9,35.5 L 19.9,35.1 L 20,35 M 20.4,34.9 L 20.4,34.4 L 20.2,34.4 L 20.2,35 L 20.4,34.9"/>
<path id="38" style="fill:#000000;opacity:1;stroke:none"
d="M 18.2,29.2 C 18.1,29.3 18,29.3 18,29.4 C 17.9,29.5 17.8,29.6 17.8,29.7 C 17.8,29.9 17.9,30 18.1,30.2 C 18.2,30.2 18.2,30.2 18.2,30.2 C 18.2,30.3 18.2,30.3 18.1,30.3 C 18,30.22 17.9,30.1 17.8,30 C 17.7,29.9 17.6,29.8 17.6,29.6 C 17.6,29.5 17.6,29.4 17.7,29.3 C 17.7,29.3 17.7,29.2 17.8,29.1 C 17.9,29 18,28.9 18.2,28.8 L 18,28.2 C 17.8,28.4 17.6,28.6 17.4,28.9 C 17.3,29.1 17.2,29.4 17.2,29.6 L 17.2,29.7 C 17.2,29.8 17.2,29.9 17.2,30 C 17.3,30.2 17.5,30.4 17.8,30.5 C 17.9,30.6 18,30.6 18.2,30.6 C 18.3,30.6 18.4,30.6 18.5,30.5 L 18.2,29.2 M 18.4,29.2 L 18.6,30.5 C 18.9,30.4 19,30.2 19,29.8 C 19,29.6 18.9,29.4 18.7,29.3 C 18.6,29.2 18.5,29.2 18.4,29.2 M 18,27.5 C 18,27.5 18.1,27.4 18.2,27.3 C 18.2,27.3 18.3,27.2 18.3,27.2 L 18.4,27 C 18.5,26.8 18.6,26.6 18.6,26.4 L 18.6,26.3 C 18.6,26.1 18.5,26 18.4,26 C 18.3,26 18.2,26.1 18.2,26.3 L 18,26.4 L 18,26.6 L 18,26.9 L 17.9,27 L 17.9,27.2 C 17.9,27.3 18,27.4 18,27.5 M 17.9,27.6 L 17.8,27.2 C 17.8,27 17.8,26.9 17.8,26.8 C 17.8,26.4 17.9,26 18,25.8 C 18,25.8 18,25.7 18.1,25.6 C 18.2,25.5 18.3,25.5 18.4,25.5 C 18.4,25.5 18.4,25.5 18.4,25.5 L 18.5,25.6 C 18.7,25.9 18.8,26.2 18.8,26.6 C 18.8,26.8 18.8,26.9 18.7,27 C 18.7,27 18.7,27 18.7,27.2 C 18.6,27.6 18.4,27.9 18.1,28.1 L 18.3,28.8 L 18.4,28.8 C 18.7,28.8 18.9,28.9 19,29 C 19.2,29.3 19.3,29.5 19.3,29.7 C 19.3,29.9 19.2,30.1 19.1,30.3 C 19,30.4 18.8,30.5 18.7,30.6 L 18.8,31.3 L 18.8,31.6 C 18.8,31.7 18.8,31.8 18.7,32 C 18.7,32 18.6,32.1 18.5,32.2 C 18.4,32.3 18.2,32.3 18.1,32.3 C 17.9,32.3 17.8,32.2 17.6,32.1 C 17.5,32 17.4,31.9 17.4,31.7 C 17.4,31.7 17.4,31.6 17.4,31.6 L 17.5,31.5 C 17.5,31.4 17.5,31.4 17.6,31.3 C 17.7,31.3 17.7,31.2 17.8,31.2 C 18,31.2 18,31.3 18.1,31.4 C 18.2,31.5 18.2,31.6 18.2,31.6 C 18.2,31.7 18.2,31.8 18,31.9 C 18,32 17.9,32 17.8,32 L 17.8,32 C 17.9,32.1 18,32.2 18.1,32.2 C 18.3,32.2 18.4,32 18.5,32 L 18.6,31.9 L 18.6,31.8 C 18.7,31.7 18.7,31.6 18.7,31.5 C 18.7,31.4 18.7,31.4 18.7,31.3 L 18.7,31.2 C 18.6,31.2 18.6,31.2 18.6,31.1 L 18.6,31 L 18.5,30.7 L 18.4,30.7 L 18.2,30.7 C 18.2,30.7 18.2,30.7 18.2,30.7 C 17.8,30.71414 17.5,30.6 17.3,30.3 C 17.2,30.2 17,30 17,29.8 C 16.9,29.6 16.9,29.5 16.9,29.3 C 16.9,29.2 16.9,29.1 16.9,29 C 16.9,29 16.9,29 16.9,28.9 C 17,28.9 17,28.9 17,28.8 L 17,28.6 C 17.1,28.6 17.1,28.5 17.2,28.5 C 17.2,28.5 17.2,28.4 17.2,28.4 L 17.4,28.2 L 17.5,28 C 17.6,27.9 17.7,27.8 17.9,27.6"/>
<path id="40" style="fill:#000000;opacity:1;stroke:none"
d="M 16.9,21.6 L 17.4,21.2 C 17.5,21.1 17.5,21.1 17.5,21 C 17.6,21 17.6,21 17.6,21 L 17.8,20.8 C 18.1,20.6 18.2,20.3 18.4,19.9 L 18.4,19.7 C 18.4,19.6 18.4,19.5 18.4,19.5 L 18.4,19.3 C 18.4,19.2 18.4,19.1 18.4,19 C 18.3,18.8 18.1,18.6 17.9,18.6 C 17.5,18.6 17.3,18.7 17.2,19 L 17.2,19 C 17.2,19 17.2,19 17.2,19.1 L 17.3,19.1 L 17.4,19 L 17.5,19.1 C 17.6,19 17.7,19.1 17.7,19.2 C 17.8,19.2 17.8,19.3 17.8,19.4 C 17.8,19.5 17.8,19.6 17.6,19.7 C 17.6,19.7 17.5,19.7 17.4,19.7 C 17.3,19.7 17.2,19.7 17.1,19.6 C 17,19.5 17,19.4 17,19.3 C 17,19 17.1,18.8 17.5,18.6 C 17.7,18.5 17.8,18.5 18,18.5 C 18.1,18.5 18.3,18.6 18.5,18.7 C 18.6,18.7 18.7,18.9 18.8,19 C 18.9,19.2 19,19.3 19,19.5 C 19,19.8 18.9,20.1 18.7,20.4 C 18.4,20.7 18.2,20.9 17.9,21.1 C 17.8,21.2 17.6,21.3 17.5,21.3 L 16.9,21.6 L 16.9,21.6 M 19.1,19 C 19.1,19 19.2,18.9 19.2,18.9 C 19.2,18.8 19.3,18.8 19.3,18.8 C 19.4,18.8 19.4,18.8 19.5,18.9 C 19.5,18.9 19.6,19 19.6,19 C 19.6,19 19.5,19.1 19.5,19.2 C 19.4,19.2 19.4,19.2 19.3,19.2 C 19.3,19.2 19.2,19.2 19.2,19.2 C 19.1,19.1 19.1,19 19.1,19 M 19.1,19.9 C 19.1,19.8 19.2,19.8 19.2,19.7 C 19.2,19.7 19.3,19.7 19.3,19.7 C 19.4,19.7 19.4,19.7 19.5,19.7 C 19.5,19.8 19.6,19.8 19.6,19.9 C 19.6,19.9 19.5,20 19.5,20 C 19.5,20 19.4,20.1 19.3,20.1 C 19.3,20.1 19.2,20.1 19.2,20 C 19.1,20 19.1,19.9 19.1,19.9"/>

<use id="u04" x="0" y="0" xlink:href="#17" transform="translate(-10.7,16.4)" width="48" height="48"/>
<use id="u05" x="0" y="0" xlink:href="#17" transform="translate(0,18.9)" width="48" height="48"/>
<use id="u06" x="0" y="0" xlink:href="#29" transform="translate(-3.7,16)" width="48" height="48"/>
<use id="u07" x="0" y="0" xlink:href="#17" transform="translate(-12,23.6)" width="48" height="48"/>
<use id="u08" x="0" y="0" xlink:href="#17" transform="translate(-5.7,25.6)" width="48" height="48"/>
<use id="u09" x="0" y="0" xlink:href="#19" transform="translate(-5.6,9)" width="48" height="48"/>
<use id="u10" x="0" y="0" xlink:href="#37" transform="translate(1.2,-14.5)" width="48" height="48"/>
<use id="u11" x="0" y="0" xlink:href="#37" transform="translate(0.1,-16.1)" width="48" height="48"/>
<use id="u12" x="0" y="0" xlink:href="#16" transform="translate(2.8,10.2)" width="48" height="48"/>
<use id="u13" x="0" y="0" xlink:href="#19" transform="translate(3.4,9)" width="48" height="48"/>
<use id="u14" x="0" y="0" xlink:href="#40" transform="translate(0,16)" width="48" height="48"/>
<use id="u15" x="0" y="0" xlink:href="#37" transform="translate(0.4,-6.4)" width="48" height="48"/>
<use id="u16" x="0" y="0" xlink:href="#37" transform="translate(-0.6,-8.1)" width="48" height="48"/>
<!-- -->
<rect id="996_rect" rx="0" ry="0" y="0.4" x="0.4" height="17" width="27" style="fill:#77cc33;opacity:1;stroke:#000000;stroke-width:1" />
<path id="tx_ogg" style="fill:#000000;opacity:1;stroke:none"
d="M 7.7,10.3 C 8.6,9.2 9.3,11.2 10.2,7 C 10.2,5.1 9.1,4.3 7.7,4.3 C 6.2,4.3 5.2,5.1 5.2,7 C 5.2,9.7 6.2,10.3 7.7,10.3 M 8.7,7.2 C 8.7,8.8 8,8.9 7.7,8.9 C 7.2,8.9 6.6,8.6 6.6,7.2 C 6.6,6.2 6.9,5.6 7.7,5.6 C 8.4,5.6 8.7,6.2 8.7,7.2 M 14.3,10.3 C 14.3,10.3 15.3,10.3 15.3,9.6 C 15.3,10.5 15.3,10.3 15.3,10.3 C 15.3,11.9 14.7,12.2 14.2,12.2 C 13.9,12.2 13.2,12 12.8,11.7 C 12.2,11.2 11.4,12.2 11.9,12.8 C 12.9,13.6 13.8,13.6 14.2,13.6 C 15.6,13.6 16.7,12.9 16.7,10.3 L 16.8,7 C 16.8,5.1 15.7,4.3 14.3,4.3 C 12.8,4.3 11.8,5.1 11.8,7 C 11.8,9.7 12.8,10.3 14.3,10.3 M 15.3,7.2 C 15.3,8.8 14.6,8.9 14.3,8.9 C 13.8,8.9 13.2,8.6 13.2,7.2 C 13.2,6.2 13.5,5.6 14.3,5.6 C 15,5.6 15.3,6.2 15.3,7.2 M 20.8,10.3 C 20.8,10.3 21.8,10.3 21.8,9.6 C 21.8,10.5 21.8,10.3 21.8,10.3 C 21.8,11.9 21.2,12.2 20.7,12.2 C 20.4,12.2 19.7,12 19.3,11.7 C 18.7,11.2 17.9,12.2 18.4,12.8 C 19.4,13.6 20.3,13.6 20.7,13.6 C 22.1,13.6 23.2,12.9 23.2,10.3 L 23.3,7 C 23.3,5.1 22.2,4.3 20.8,4.3 C 19.3,4.3 18.3,5.1 18.3,7 C 18.3,9.7 19.3,10.3 20.8,10.3 M 21.8,7.2 C 21.8,8.8 21.1,8.9 20.8,8.9 C 20.3,8.9 19.7,8.6 19.7,7.2 C 19.7,6.2 20,5.6 20.8,5.6 C 21.5,5.6 21.8,6.2 21.8,7.2" />
<!-- Jakub Steiner -->
</svg>

