<?xml version="1.0" encoding="UTF-8" standalone="no"?>
<svg height="48px" width="48px">
<path id="p1" style="opacity:1;fill:#aaaaaa;stroke:#000000;stroke-width:1"
d="M 31.5,3.5 L 41.5,14.5 V 44.5 H 6.5 V 3.5 Z"/>
<path id="p5" style="opacity:1;fill:none;stroke:#000000;stroke-width:1"
d="M 31.5,3.5 V 14.5 H 41.5"/>
<path id="p2" style="opacity:1;fill:#555555;stroke:none"
d="M 12.9 16.6 L 10.6 19.5 L 12 19.5 L 12 33.5 L 10.6 33.5 L 12.9 36.5 L 15.1 33.5 L 13.7 33.5 L 13.7 19.5 L 15 19.5 L 12.9 16.6 z M 35.8 17.1 L 31.6 17.8 L 31.3 18.8 C 30.7 17.7 29.6 17.3 28.4 17.3 C 23 17.6 17.6 24.8 17.6 30.5 C 17.6 31.9 18 33 18.7 33.9 C 18.7 33.9 18.7 33.9 18.7 33.9 C 19.5 34.7 20.4 35.2 21.4 35.2 C 24.3 35.3 26 33.2 27.7 31.5 C 27.5 32 27.4 32.7 27.4 33.125 C 27.5 34.4 28.3 35.2 29.5 35.2 C 31.8 35.2 34.1 32.7 35.4 30.6 L 33.8 29.5 C 33.3 30.5 32.5 31.4 31.7 32.1 C 31.3 32.6 31.5 31.9 31.5 31.9 L 31.5 31.8 C 32.7 27 34.3 22 35.8 17.1 z M 28.4 19.4 C 29.8 19.3 30.1 20.3 30.1 21.7 C 30 24.8 26.2 32 23.2 32 C 22 32 21.7 30.8 21.7 29.9 C 21.5 26.2 25.9 19.4 28.4 19.4 z M 18.2 37.1 L 15.2 39.4 L 18.2 41.6 L 18.2 40.2 L 34.4 40.2 L 34.4 41.7 L 37.3 39.375 L 34.4 37.1 L 34.4 38.6 L 18.2 38.6 L 18.2 37.1 z"/>
</svg>
<!-- Lapo Calamandrei - Jakub Steiner -->
