<?xml version="1.0" encoding="UTF-8" standalone="no"?>
<svg width="48" height="48" id="svg2" version="1.0">
<path id="1" style="fill:#555555;stroke:#000000;stroke-width:1;" d="M 16.898449,38.2 L 16.079,41.1 L 31.9,41.1 L 31.1,38.2 L 16.898,38.2 z"/>
<rect id="2" style="opacity:0.7;fill:#000000;stroke:#000000;stroke-width:1;" x="19.9" y="39.2" width="8.2" height="3.6" />
<rect id="3" style="opacity:1;fill:#555555;stroke:#000000;stroke-width:1;" x="19.9" y="31.58" width="8.1946" height="7.6" />
<rect id="4" style="opacity:1;fill:#555555;stroke:#000000;stroke-width:1;" width="44.997997" height="30" x="1.5" y="4.2" rx="0" ry="0" />
<rect id="5" style="opacity:1;fill:#ccaa99;stroke:#000000;stroke-width:1;" width="38.988369" height="20" x="4.588387" y="7.06699" />
<path id="6" style="fill:#000000;stroke:none" d="M 23.9 9 C 20.9 9 18.9 10.3 18.9 13.2 L 18.869141 16 L 20.769531 16.035 L 20.769531 13.998047 C 20.75733 13.280939 20.556079 10.888672 23.960938 10.888672 C 27.342472 10.888672 27.1 13.3 27.1 14 L 27.1 16 L 28.994141 16.035156 L 29 13.257812 C 29 10.332752 26.987198 9.0751695 23.939453 9.0390625 z M 16.482422 17.056641 L 16.482422 24.1 L 31.375 24.1 L 31.375 17.056641 L 16.482422 17.056641 z"/>
</svg>
