<?xml version="1.0" encoding="UTF-8" standalone="no"?>
<svg id="svg11300" height="48px" width="48px" version="1.1">
<!-- Jakub Steiner -->
<path id="1" style="fill:#f9f400;stroke:#000000;stroke-width:1" d="M 18.310914,5.1976154 C 10.303316,7.6822665 4.4483307,15.070398 4.4483307,23.891514 c 0,10.849379 8.8052933,19.654673 19.6546723,19.654673 10.849379,0 19.654672,-8.805294 19.654672,-19.654673 0,-8.799927 -5.829819,-16.1638946 -13.807682,-18.6664479 0,0 -0.192154,9.1136189 -0.192154,9.1136189 3.171789,1.971218 5.40778,5.326572 5.40778,9.333224 -10e-7,6.165767 -5.006652,11.172419 -11.172419,11.172419 -6.165768,-10e-7 -11.172418,-5.006651 -11.172418,-11.172419 0,-4.113242 2.341605,-7.559419 5.654836,-9.497928 L 18.310914,5.1976154 Z"/>
<rect id="2" style="fill:#f9f400;stroke:#000000;stroke-width:1" x="19.870401" y="2.9389987" width="8.5423641" height="18.030487" rx="0" ry="0"/>
</svg>
