<?xml version="1.0" encoding="UTF-8" standalone="no"?>
<svg
   width="48"
   height="48"
   id="svg2"
   version="1.0"
>

  <!-- authors: Lapo Calamandrei, Jakub Steiner    -->
  <!-- license: http://creativecommons.org/licenses/by-nc-sa/2.0/ -->
  <ellipse
     ry="5.4999981"
     rx="24.00001"
     cy="41.500019"
     cx="24.00001"
     id="path2791"
     style="color:#000000;display:inline;overflow:visible;visibility:visible;opacity:0.3;fill:url(#radialGradient2801);fill-opacity:1;fill-rule:nonzero;stroke:none;stroke-width:1;stroke-linecap:round;stroke-linejoin:miter;stroke-miterlimit:4;stroke-dasharray:none;stroke-dashoffset:0;stroke-opacity:1;marker:none;marker-start:none;marker-mid:none;marker-end:none" />
  <path
     id="path2418"
     d="M 35.483718,40.06603 C 26.272614,33.246246 46.280822,37.551644 44.370542,33.819063 C 42.460262,30.086482 24.465479,37.223191 24.575471,33.096078 C 24.685463,28.968965 33.612392,35.156174 30.668979,23.516315"
     style="fill:none;fill-opacity:1;fill-rule:evenodd;stroke:#000000;stroke-width:1;stroke-linecap:butt;stroke-linejoin:miter;stroke-miterlimit:4;stroke-dasharray:none;stroke-opacity:1" />
  <path
     style="opacity:1;fill:#555555;fill-opacity:1;fill-rule:evenodd;stroke:#000000;stroke-width:1;stroke-linecap:round;stroke-linejoin:miter;stroke-miterlimit:4;stroke-dasharray:none;stroke-opacity:1"
     d="M 16.898449,34.467959 L 16.079039,37.383537 L 31.920961,37.383522 L 31.101551,34.467959 L 16.898449,34.467959 z "
     id="path4055" />
  <rect
     style="opacity:1;color:#000000;fill:#555555;fill-opacity:1;fill-rule:nonzero;stroke:#000000;stroke-width:1;stroke-linecap:round;stroke-linejoin:miter;marker:none;marker-start:none;marker-mid:none;marker-end:none;stroke-miterlimit:4;stroke-dasharray:none;stroke-dashoffset:0;stroke-opacity:1;visibility:visible;display:inline;overflow:visible"
     id="rect1320"
     width="8.1946144"
     height="7.605176"
     x="19.902718"
     y="27.83441" />
  <rect
     style="opacity:1;fill:#555555;fill-opacity:1;fill-rule:nonzero;stroke:#000000;stroke-width:1;stroke-linecap:round;stroke-linejoin:miter;marker:none;marker-start:none;marker-mid:none;marker-end:none;stroke-miterlimit:4;stroke-dasharray:none;stroke-dashoffset:0;stroke-opacity:1;visibility:visible;display:inline;overflow:visible"
     id="rect1318"
     width="44.997997"
     height="30.000994"
     x="1.5012436"
     y="0.49900627"
     rx="0"
     ry="0" />
  <rect
     style="opacity:1;color:#000000;fill: #ccaa99;fill-opacity:1;fill-rule:nonzero;stroke:#000000;stroke-width:1;stroke-linecap:round;stroke-linejoin:miter;marker:none;marker-start:none;marker-mid:none;marker-end:none;stroke-miterlimit:4;stroke-dasharray:none;stroke-dashoffset:0;stroke-opacity:1;visibility:visible;display:inline;overflow:visible"
     id="rect2197"
     width="38.988369"
     height="20.008995"
     x="4.588387"
     y="3.3169942" />
  <ellipse
     ry="1.82322"
     rx="24.707125"
     cy="45.81601"
     cx="24.000017"
     style="display:inline;overflow:visible;visibility:visible;opacity:0.5254902;fill:url(#radialGradient2644);fill-opacity:1;fill-rule:nonzero;stroke:none;stroke-width:1;stroke-linecap:round;stroke-linejoin:miter;stroke-miterlimit:4;stroke-dasharray:none;stroke-dashoffset:0;stroke-opacity:1;marker:none;marker-start:none;marker-mid:none;marker-end:none"
     id="path2620" />
  <path
     id="path2622"
     d="M 3.5,38.569542 L 44,38.569542 L 47.5,46.499998 L 0.5,46.499998 L 3.5,38.569542 z"
     style="fill:#555555;fill-opacity:1;fill-rule:nonzero;stroke:#000000;stroke-width:1;stroke-linecap:round;stroke-linejoin:miter;marker:none;marker-start:none;marker-mid:none;marker-end:none;stroke-miterlimit:4;stroke-dashoffset:0;stroke-opacity:1;visibility:visible;display:inline;overflow:visible" />
  <path
     id="path2626"
     d="M 5.5,38.575251 L 42,38.575251 L 44,43.548157 L 4,43.548157 L 5.5,38.575251 z"
     style="fill:#aaaaaa;fill-opacity:1;fill-rule:nonzero;stroke:#000000;stroke-width:1;stroke-linecap:round;stroke-linejoin:miter;marker:none;marker-start:none;marker-mid:none;marker-end:none;stroke-miterlimit:4;stroke-dashoffset:0;stroke-opacity:1;visibility:visible;display:inline;overflow:visible;stroke-dasharray:none" />
  <path
     style="opacity:0.50561798;color:#000000;fill:url(#linearGradient3419);fill-opacity:1.0;fill-rule:evenodd;stroke:none;stroke-width:1;stroke-linecap:round;stroke-linejoin:round;marker:none;marker-start:none;marker-mid:none;marker-end:none;stroke-miterlimit:10;stroke-dasharray:none;stroke-dashoffset:0;stroke-opacity:1;visibility:visible;display:inline;overflow:visible"
     d="M 32.59375,38.0625 L 32.328125,37.671875 C 32.225594,37.285644 33.05134,36.882644 33.390625,37.46875 L 33.953125,38.09375 L 32.59375,38.0625 z "
     id="path3411" />
</svg>
