<?xml version="1.0" encoding="UTF-8" standalone="no"?>
<svg width="48" height="48" id="svg2" version="1.0">
<path id="1" style="fill:#555555;stroke:#000000;stroke-width:1" d="M 44.43516,30.820537 C 44.40198,33.846039 44.45336,36.870061 44.510881,39.894727 C 30.864605,39.894689 17.21833,39.894681 3.5720539,39.894727 L 3.5649621,30.505078 C 3.5649621,30.505078 44.43516,30.820537 44.43516,30.820537 z" />
<path id="2" style="fill:#aaaaaa;stroke:#000000;stroke-width:1" d="M 11.699347,8.1463303 L 36.259618,8.1463303 C 37.942946,8.1463303 38.68341,8.2645532 39.298116,10.69618 L 44.370068,30.759568 C 44.370068,30.759568 3.5888928,30.759568 3.5888928,30.759568 L 9.7830759,8.117983 C 9.7830759,8.117983 11.699347,8.1463303 11.699347,8.1463303 z" />
<path id="3" style="fill:#aaaaaa;stroke:#000000;stroke-width:1" d="M 21.730431,34.021111 L 28.813094,34.021111 L 28.813094,38.103144 L 21.730431,38.103144 L 21.730431,34.021111 z M 31.274471,34.021915 L 40.437667,34.021915 L 40.437667,38.103949 L 31.274471,38.103949 L 31.274471,34.021915 z" />
<ellipse id="4" style="fill:#000000;stroke:none" cx="36.2" cy="11.3" rx="0.7" ry="0.5" />
<circle id="5" style="fill:#CCAA99;stroke:none" cx="33" cy="12.7" r="10"/>
<path id="6" style="fill:#f0f1f0;stroke:none" d="M 38.326146,7.9838947 L 34.992813,7.9838947 L 34.992813,11.317228 L 36.149146,11.317228 C 36.044813,13.249894 34.87748,13.376228 33.83948,13.483894 C 33.775146,13.490561 33.719813,13.498228 33.65948,13.505228 L 33.65948,6.9172287 L 35.326146,6.9172287 L 33.002146,3.6645621 L 30.65948,6.9172287 L 32.326146,6.9172287 L 32.326146,15.463228 C 32.251146,15.454228 32.179813,15.444561 32.098146,15.436228 C 31.099146,15.332228 29.980146,15.211228 29.804813,13.477228 C 30.50448,13.165894 30.992813,12.465894 30.992813,11.650561 C 30.992813,10.546229 30.09748,9.6505617 28.992813,9.6505617 C 27.888146,9.6505617 26.992813,10.546229 26.992813,11.650561 C 26.992813,12.696561 27.79548,13.553561 28.819146,13.641894 C 29.07148,15.815561 30.574813,16.244894 31.593146,16.383894 C 30.833813,16.853894 30.326146,17.691894 30.326146,18.650561 C 30.326146,20.123228 31.520146,21.317228 32.992813,21.317228 C 34.46548,21.317228 35.65948,20.123228 35.65948,18.650561 C 35.65948,17.408561 34.808813,16.367894 33.65948,16.071228 L 33.65948,14.510561 C 33.746813,14.498894 33.84548,14.488894 33.942813,14.478561 C 34.953146,14.373894 37.013813,14.150894 37.146813,11.317228 L 38.326146,11.317228 L 38.326146,7.9838947 z" />
<!-- Jakub Steiner, Lapo Calamandrei -->
</svg>
