<?xml version="1.0" encoding="UTF-8" standalone="no"?>
<svg width="48" height="48">
<rect id="c" style="fill:#555555;stroke:#000000;stroke-width:1;opacity:1;" width="33.4" height="12.5" x="7.3" y="8" />
<rect id="d" style="fill:#555555;stroke:#000000;stroke-width:1;opacity:1;" width="41.2" height="5.7" x="3.4" y="36" />
<rect id="e" style="fill:#aaaaaa;stroke:#000000;stroke-width:1;opacity:1;" y="20.4" x="2.7" height="16" width="42.8" />
<rect id="f" style="fill:#7F7F7F;stroke:#000000;stroke-width:1;opacity:1;" y="1.5" x="11.3" height="19.9" width="25.1" />
<rect id="g" style="fill:#555555;stroke:#000000;stroke-width:1;opacity:1;" y="21" x="10.3" height="11.3" width="27" />
<rect id="h" style="fill:#aaaaaa;stroke:#000000;stroke-width:1;opacity:1;" y="38.6" x="7.2" height="7" width="33.4" />
<path id="i" style="fill:#555555;stroke:#000000;stroke-width:1;opacity:1" d="M 21,6 L 28,6 L 28,11 L 31.5,11 L 24.5,19 L 17.4,11 L 21,11 L 21,6 z" />
</svg>
