<?xml version="1.0" encoding="UTF-8" standalone="no"?>
<svg width="48" height="48">
<circle id="0" style="fill:#7F7F7F;stroke:none"
cx="24" cy="24" r="22.5"/>
<path id="1" style="fill:#555555;stroke:none"
d="M 10,28 H 38 V 20 H 10 Z"/>
</svg>
