<?xml version="1.0" encoding="UTF-8" standalone="no"?>
<svg width="48" height="48">
<circle id="0" style="fill:#7F7F7F;stroke:none"
cx="24" cy="24" r="22.5"/>
<path id="1-3" style="fill:#555555;stroke:none"
d="M 16.9,27.2 L 22.6,24.5 V 38 H 30.6 V 10 L 12.6,20 Z"/>
</svg>
