<?xml version="1.0" encoding="UTF-8" standalone="no"?>
<svg width="48" height="48">
<path id="1" style="opacity:1;fill:#aaaaaa;stroke:none" d="M 2,25.7 L 8.7,25.7 L 8.7,39.4 L 7,42.4 L 1.625,42.4 L 2,25.7 z"/>
<path id="2" style="opacity:1;fill:#009FF9;stroke:none" d="M -2.2,25.7 L 4.5,25.7 L 4.5,44.4 L -2.6,44.4 L -2.2,25.7 z"/>
<path id="3" transform="matrix(1,0,0,0.9345117,0.2270291,0.7265207)" style="opacity:1;fill:#000000;stroke:none" d="M 7.1,39.8 A 1.1,1.1 0 1 1 4.8,39.8 A 1.1,1.1 0 1 1 7.1,39.8 z"/>
<path id="4" style="fill:#009FF9;stroke:none;stroke-width:1px" d="M 8.6,26.9 L 18.2,24.6 L 30.1,31.4 L 30.1,35.5 L 40.3,34.4 L 42,39 L 20.5,42.8 L 8.7,38.4 L 8.6,26.9 z"/>
</svg>
