<?xml version="1.0" encoding="UTF-8" standalone="no"?>
<svg width="48" height="48" id="svg2" version="1.0">
<path id="0" style="fill:#555555;opacity:1;stroke:#000000;stroke-width:1"
d="M 44.5,30.3 C 44.5,33.6 44.5,36.9 44.4,40.2 L 3.8,40.2 L 3.8,30.3 C 3.8,30.3 44.5,30.3 44.5,30.345019 z" />
<path id="1" style="fill:#aaaaaa;opacity:1;stroke:#000000;stroke-width:1"
d="M 38.8,6.4 C 38.8,6.4 44.3,30.7 44.3,30.7 L 3.8,30.7 L 9.6,6.1 C 9.6,6.1 38.8,6.4 38.8,6.4 z" />
<rect id="2" style="fill:#000000;opacity:1;stroke:none" width="34.1" height="2" x="-41.4" y="33.3" transform="scale(-1,1)" />
</svg>
