<?xml version="1.0" encoding="UTF-8" standalone="no"?>
<svg width="48" height="48">
<path id="1" style="opacity:1;fill:#AB545C;stroke:#000000;stroke-width:1"
d="M 41,30.3 C 41,30.3 30.3,18.7 30.3,18.7 L 40.9,7.7 C 40.9,7.7 7.8,7.7 7.8,7.7 L 7.9,41 C 7.9,41 18.7,30.2 18.7,30.2 C 18.7,30.2 29.6,41.7 29.6,41.7 C 29.6,41.7 41,30.3 41,30.3 z"/>
</svg>
