<?xml version="1.0" encoding="UTF-8" standalone="no"?>
<svg width="48" height="48">
<path id="0" style="fill:#555555;stroke:#000000;stroke-width:1" d="M 16.9,38.2 16,41.1 31.9,41.1 31.1,38.2 z"/>
<path id="1" style="fill:#555555;stroke:#000000;stroke-width:1" d="M 19.9,31.6 19.9,39.2 28.1,39.2 28.1,31.6 z"/>
<path id="2" style="fill:#555555;stroke:#000000;stroke-width:1;opacity:1" d="M 1.5,4.2 1.5,34.2 46.5,34.2 46.5,4.2 z"/>
<path id="3" style="fill:#B2B2B2;stroke:#000000;stroke-width:1" d="M 4.6,7 4.6,27 43.6,27 43.6,7 z"/>
<path id="4" style="fill:#000000;stroke:none;opacity:1" d="M 23.9,9 C 20.9,9 18.9,10.3 18.9,13.2 L 18.9,16 20.8,16 20.8,14 C 20.8,13.3 20.6,10.9 24,10.9 27.4,10.9 27.1,13.3 27.1,14 L 27.1,16 29,16 29,13.25 C 29,10.3 27,9.1 23.9,9 z M 16.5,17.1 16.5,24.1 31.4,24.1 31.375,17.1 16.5,17.1 z"/>
<!-- Lapo Calamandrei, Jakub Steiner - http://creativecommons.org/licenses/by-nc-sa/2.0/" -->
</svg>
