<?xml version="1.0" encoding="UTF-8" standalone="no"?>
<svg width="48" height="48">
<circle id="0" style="fill:#B2B2B2;stroke:none;opacity:1" cx="24" cy="24" r="22.5" />
<path id="1" style="fill:#555555;opacity:1;stroke:none"
d="M 30.7,9.3 L 13.7,24 L 13.7,15.6 L 9,15.6 L 9,34.6 L 13.7,34.6 L 13.7,26.2 L 30.7,40.875 L 30.7,33.6 L 39.5,33.6 L 39.5,16.6 L 30.7,16.6 L 30.7,9.3 z" />
</svg>
