<?xml version="1.0" encoding="UTF-8" standalone="no"?>
<svg width="48" height="48" id="svg2" version="1.1">
<path id="1" style="opacity:1;fill:#aaaaaa;stroke:#000000;stroke-width:1;stroke-miterlimit:4"
  d="m 24,8.5 -14.5,20 29,0 L 24,8.5 Z"/>
<path id="2" style="opacity:1;fill:#aaaaaa;stroke:#000000;stroke-width:1;stroke-miterlimit:4"
  d="m 8.5,32.5 0,5 31,0 0,-5 L 8.5,32.5 Z"/>
</svg>
