<?xml version="1.0" encoding="UTF-8" standalone="no"?>
<svg width="48" height="48" id="svg2" version="1.0">

<path id="a"
style="fill:#dd0000;fill-opacity:1;stroke:none"
d="M 46.3,24.5 C 46.3,36.9 36.3,46.9 23.9,46.9 C 11.5,47 1.5,36.9 1.5,24.5 C 1.5,12 11.5,2 23.9,2 C 36.3,2 46.3,12.1 46.3,24.5 L 46.3,24.5 z"
/>

<path id="b"
style="fill:#555555;fill-opacity:1;stroke:none"
d="M 15.8,12.6 L 11,17.3 L 19,25.2 L 11,33 L 15.8,37.8 L 23.7,30 L 31.5,37.8 L 36.3,33 L 28.5,25.2 L 36.3,17.3 L 31.5,12.6 L 23.7,20.4 L 15.8,12.6 z"
/>

</svg>
