<?xml version="1.0" encoding="UTF-8" standalone="no"?>
<svg width="48px" height="48px">
<path id="1" style="fill:#aaaaaa;stroke:#000000;opacity:1"
d="M 24.3,4.2 C 12.8,4.2 3.5,13.5 3.5,25 C 3.5,36.54762 12.8,45.8 24.3,45.8 C 35.9,45.8 45.2,36.54762 45.2,25 C 45.2,13.452381 35.894626,4.2 24.3,4.2 L 24.3,4.2 z M 24.3,30 C 21.6,30 19.3,27.7 19.3,25 C 19.3,22.261905 21.6,20 24.3,20 C 27.1,20 29.3,22.3 29.3,25 C 29.3,27.7 27.1,30 24.3,30 z" />
<path id="2" style="opacity:0.1;stroke:none;fill:#000000"
d="M 24.3,12.7 C 17.461192,12.7 12,18.3 12,25 C 12,31.885816 17.637.3 24.3,37.3 C 31.2,37.3 36.7,31.7 36.7,25 C 36.7,18.1 31.1,12.7 24.3,12.7 L 24.3,12.7 z M 24.3,31.7 C 20.7,31.7 17.628.683111 17.625 C 17.621.3 20.7,18.3 24.3,18.3 C 28,18.3 31.1,21.3 31.1,25 C 31.1,28.683111 28,31.7 24.3,31.7 z" />
<!-- Jakub Steiner http://jimmac.musichall.cz -->
</svg>
