<?xml version="1.0" encoding="UTF-8" standalone="no"?>
<svg width="48" height="48" id="svg11300" version="1.0">

<path id="1"
style="stroke:#000000;fill:#ff8833;opacity:1;stroke-width:2"
d="M 40.97,30 C 40.97,30 30,18.7 30,18.7 L 40.86,7.7 C 40.86,7.7 7.8,7.7 7.8,7.7 L 7.9,40.9 C 7.9,40.9 18.7,30 18.7,30 C 18.7,30 29.56,41.7 29.56,41.7 C 29.56,41.7 40.97,30.3 40.97,30.3 z"/>
</svg>

