<?xml version="1.0" encoding="UTF-8" standalone="no"?>
<svg width="48" height="48">
<path id="1" style="fill:#555555;stroke:#000000"
d="M 46,6 L 42,6 L 42,1 L 7,1 L 7,42 L 42,42 L 42,21 L 46,21 L 46,6 z"/>
<path id="2" style="fill:#42A6FF;stroke:#000000"
d="M 36,6 L 36,47 L 6,42 L 6,1 L 36,6 z"/>
<path id="3" style="fill:#555555;stroke:none"
d="M 17,15 V 16.9 H 15.8 V 17.7 H 17 V 25.2 L 13.5,21.7 V 33.3 H 25.2 L 22,30.1 H 27.9 V 31.3 H 28.7 V 30.1 H 29.9 V 29.3 H 28.7 V 17.7 H 29.9 V 16.9 H 28.7 V 15 H 27.9 V 16.9 H 17.8 V 15 Z M 17.8,17.7 H 27.9 V 29.3 H 21.2 L 17.8,25.9 Z M 15.9,27.1 L 17,28.3 V 29.3 H 15.9 Z M 17.8,29 L 18.1,29.3 H 17.8 Z M 15.9,30.1 H 17 V 31 H 15.9 Z M 17.8,30.1 H 18.9 L 19.8,31 H 17.8 Z"/>
</svg>
