<?xml version="1.0" encoding="UTF-8" standalone="no"?>
<svg width="48" height="48">
<rect id="0" style="opacity:0.42;fill:none;opacity:1;stroke:#ffffff;stroke-width:1" width="31" height="17.6" x="8.5" y="9.5" rx="0" ry="0" />
<rect id="1" style="fill:#555555;opacity:1;stroke:#000000;stroke-width:1" width="33.4" height="12.5" x="7.3" y="7.9" />
<rect id="2" style="fill:#555555;opacity:1;stroke:#000000;stroke-width:1" width="41.2" height="5.7" x="3.4" y="36" />
<rect id="3" style="fill:#aaaaaa;opacity:1;stroke:#000000;stroke-width:1" y="20.4" x="2.7" height="16" width="42.9" />
<rect id="4" style="fill:#7F7F7F;opacity:1;stroke:#000000;stroke-width:1" y="1.5" x="11.3" height="19.9" width="25.1" />
<rect id="5" style="fill:#555555;opacity:1;stroke:#000000;stroke-width:1" y="21" x="10.3" height="11.3" width="27" />
<rect id="6" style="fill:#aaaaaa;opacity:1;stroke:#000000;stroke-width:1" y="38.6" x="7.2" height="7" width="33.4"  />
</svg>
