<?xml version="1.0" encoding="UTF-8" standalone="no"?>
<svg
   width="48"
   height="48"
   id="svg2"
   version="1.0"
   sodipodi:modified="true">
  <defs
     id="defs4">
    <inkscape:perspective
       id="perspective3377" />
  </defs>
  <sodipodi:namedview
     id="base"
     pagecolor="#ffffff"
     bordercolor="#666666"
     borderopacity="1.0"
     gridtolerance="10000"
     guidetolerance="10"
     objecttolerance="10"
     width="48px"
     height="48px"
     showgrid="false" />
  <metadata
     id="metadata7">
    <rdf:RDF>
      <cc:Work
         rdf:about="">
        <dc:format>image/svg+xml</dc:format>
        <dc:type
           rdf:resource="http://purl.org/dc/dcmitype/StillImage" />
      </cc:Work>
    </rdf:RDF>
  </metadata>
  <g
     inkscape:label="Layer 1"
     inkscape:groupmode="layer"
     id="layer1">
    <path
       style="fill:#555555;overflow:visible;stroke:#000000;stroke-opacity:1;fill-opacity:1"
       d="M 2.821353,25.31999 C 2.8394857,29.52227 2.8584041,37.926729 2.8584041,37.926729 L 46.166053,37.926729 L 46.111675,25.31999"
       id="path3134"
       sodipodi:nodetypes="cccc" />
    <path
       style="fill:#aaaaaa;overflow:visible;stroke:#000000;stroke-opacity:1;fill-opacity:1"
       d="M 2.821353,25.31999 C 2.821353,25.31999 7.377482,5.4548205 7.377482,5.4548205 C 7.564837,5.4548205 41.413966,5.4548205 41.413966,5.4548205 L 46.111675,25.31999 L 2.821353,25.31999 z"
       id="path3148"
       sodipodi:nodetypes="ccccc" />
    <path
       style="fill:#aaaaaa;overflow:visible;fill-opacity:1;stroke:#000000;stroke-opacity:1"
       d="M 42.769002,32.196399 L 6.575451,32.196399 C 6.575451,32.196399 6.575451,28.758192 6.575451,28.758192 L 42.769002,28.758192 C 42.769002,28.758192 42.769002,32.196399 42.769002,32.196399 z"
       id="path3170"
       sodipodi:nodetypes="ccccc" />
    <path
       style="fill:#aaaaaa;stroke:#000000;stroke-width:1;stroke-opacity:1;overflow:visible;stroke-miterlimit:4;stroke-dasharray:none;fill-opacity:1"
       d="M 42.54405,36.352348 L 38.141365,36.352348 C 38.141365,36.352348 38.141365,34.593638 38.141365,34.593638 L 42.54405,34.593638 C 42.54405,34.593638 42.54405,36.352348 42.54405,36.352348 z"
       id="path3181"
       sodipodi:nodetypes="ccccc" />
    <path
       id="path3040"
       d="M 8.7630762,29.236545 C 8.4984419,30.012431 8.3118884,30.826926 8.3118884,31.658205 C 8.3118874,37.605786 15.480792,42.366026 24.374174,42.366026 C 33.267555,42.366026 40.406382,37.605786 40.406382,31.658205 C 40.406382,30.830445 40.247734,30.009421 39.985273,29.236545 L 25.005837,29.236545 C 26.776723,29.465446 28.22431,30.412345 28.22431,31.658205 C 28.22431,33.068457 26.482914,34.225748 24.374174,34.225748 C 22.265433,34.225748 20.524038,33.068457 20.524038,31.658205 C 20.524039,30.412345 21.971625,29.465446 23.742511,29.236545 L 8.7630762,29.236545 z"
       style="fill:url(#linearGradient7085);fill-rule:nonzero;stroke:none;stroke-miterlimit:4" />
    <path
       sodipodi:nodetypes="cccccc"
       id="path3049"
       d="M 8.6126802,29.732548 C 8.4465911,30.35418 8.3118884,31.003516 8.3118884,31.658205 C 8.3118884,37.605786 15.480792,42.366026 24.374174,42.366026 C 33.267555,42.366026 40.406382,37.605786 40.406382,31.658205 C 40.406382,31.003516 40.271679,30.35418 40.10559,29.732548 L 8.6126802,29.732548 z"
       style="fill:#aaaaaa;fill-rule:nonzero;stroke:#000000;stroke-width:0.94798302999999995;stroke-miterlimit:4;stroke-opacity:1;fill-opacity:1" />
    <path
       sodipodi:nodetypes="ccccccccccc"
       id="path3051"
       d="M 17.021642,29.259857 C 16.277135,30.118795 15.746327,30.622353 15.746327,31.675771 C 15.746326,34.918375 19.702721,37.470362 24.438607,37.470362 C 29.287253,37.470361 33.130887,34.842966 33.130887,31.675771 C 33.130887,30.606878 32.566608,30.113724 31.822011,29.259857 L 26.646509,29.259857 C 28.261531,29.76723 29.170697,30.414725 29.170697,31.675771 C 29.170698,33.410187 27.032068,34.833498 24.438607,34.833498 C 21.845144,34.833498 19.706516,33.410187 19.706516,31.675771 C 19.706516,30.413994 20.591406,29.766834 22.207925,29.259857 L 17.021642,29.259857 z"
       style="opacity:1;fill-rule:nonzero;stroke:none;stroke-miterlimit:4;fill:#555555;fill-opacity:1" />
  </g>
</svg>
