<?xml version="1.0" encoding="UTF-8" standalone="no"?>
<svg
   xmlns:dc="http://purl.org/dc/elements/1.1/"
   xmlns:cc="http://creativecommons.org/ns#"
   xmlns:rdf="http://www.w3.org/1999/02/22-rdf-syntax-ns#"
   xmlns:svg="http://www.w3.org/2000/svg"
   xmlns="http://www.w3.org/2000/svg"
   xmlns:sodipodi="http://sodipodi.sourceforge.net/DTD/sodipodi-0.dtd"
   xmlns:inkscape="http://www.inkscape.org/namespaces/inkscape"
   height="48px"
   width="48px"
   version="1.1"
   id="svg5"
   sodipodi:docname="text-x-generic.svg"
   inkscape:version="0.92.1 r15371">
  <metadata
     id="metadata11">
    <rdf:RDF>
      <cc:Work
         rdf:about="">
        <dc:format>image/svg+xml</dc:format>
        <dc:type
           rdf:resource="http://purl.org/dc/dcmitype/StillImage" />
      </cc:Work>
    </rdf:RDF>
  </metadata>
  <defs
     id="defs9">
    <linearGradient
       y2="248.6311"
       x2="153.0005"
       y1="15.4238"
       x1="99.777298"
       gradientUnits="userSpaceOnUse"
       id="aigrd1">
      <stop
         id="stop53300"
         style="stop-color:#184375"
         offset="0" />
      <stop
         id="stop53302"
         style="stop-color:#C8BDDC"
         offset="1" />
    </linearGradient>
  </defs>
  <sodipodi:namedview
     pagecolor="#ffffff"
     bordercolor="#666666"
     borderopacity="1"
     objecttolerance="10"
     gridtolerance="10"
     guidetolerance="10"
     inkscape:pageopacity="0"
     inkscape:pageshadow="2"
     inkscape:window-width="1360"
     inkscape:window-height="736"
     id="namedview7"
     showgrid="false"
     inkscape:zoom="11.23324"
     inkscape:cx="26.806131"
     inkscape:cy="19.288264"
     inkscape:window-x="0"
     inkscape:window-y="26"
     inkscape:window-maximized="0"
     inkscape:current-layer="svg5" />
  <path
     id="p1"
     style="opacity:1;fill:#aaaaaa;stroke:#000000;stroke-width:1"
     d="M 31.5,3.5 L 41.5,14.5 V 44.5 H 6.5 V 3.5 Z" />
  <path
     style="display:inline;overflow:visible;visibility:visible;opacity:1;fill:#555555;fill-opacity:1;fill-rule:evenodd;stroke:none;stroke-width:2.88795257px;stroke-linecap:round;stroke-linejoin:round;stroke-miterlimit:4;stroke-dasharray:none;stroke-dashoffset:0;stroke-opacity:1;marker:none;marker-start:none;marker-mid:none;marker-end:none"
     d="M 11 9.0917969 L 11 18.416016 L 11 20 L 11 22 L 11 30 L 11 36 L 11 38 L 23.830078 38 L 23.830078 36 L 37.125 36 L 37.125 22 L 37.125 18.416016 L 37.125 14.474609 L 31.160156 14.474609 L 31.160156 9.0917969 L 11 9.0917969 z "
     id="rect5549" />
  <path
     id="p5"
     style="opacity:1;fill:none;stroke:#000000;stroke-width:1"
     d="M 31.5,3.5 V 14.5 H 41.5" />
</svg>
<!-- Lapo Calamandrei - Jakub Steiner -->

