<?xml version="1.0" encoding="UTF-8" standalone="no"?>
<svg height="48px" width="48px">
<path id="p1" style="opacity:1;fill:#aaaaaa;stroke:#000000;stroke-width:1"
d="M 31.5,3.5 L 41.5,14.5 V 44.5 H 6.5 V 3.5 Z"/>
<path id="p5" style="opacity:1;fill:none;stroke:#000000;stroke-width:1"
d="M 31.5,3.5 V 14.5 H 41.5"/>
<path id="p2" style="opacity:1;fill:#555555;stroke:#000000;stroke-width:1"
d="M 24,15.2 L 14.2,24.9 L 23.9,34.7 L 33.6,25 Z"/>
</svg>
<!-- Lapo Calamandrei - Jakub Steiner -->
