<?xml version="1.0" encoding="UTF-8" standalone="no"?>
<svg width="48px" height="48px">
<path id="1" style="fill:#555555;stroke:#000000;stroke-width:1"
d="M 24.3,43.2 L 4.4,23.3 L 24.3,3.4 L 44.2,23.3 L 24.3,43.2 L 24.3,43.2 z"/>
</svg>
