<?xml version="1.0" encoding="UTF-8" standalone="no"?>
<svg   height="48px"   width="48px">
  <path     id="p1"     style="opacity:1;fill:#aaaaaa;stroke:#000000;stroke-width:1"
     d="M 31.5,3.5 L 41.5,14.5 V 44.5 H 6.5 V 3.5 Z" />
  <path     id="p5"     style="opacity:1;fill:none;stroke:#000000;stroke-width:1"
     d="M 31.5,3.5 V 14.5 H 41.5" />
  <path     id="path8655" style="opacity:1;fill:#555555;stroke:none"
     d="M 24.054414,15.927565 C 23.22882,15.927565 22.43205,16.042986 21.666762,16.238625 L 21.9,16.202156 L 22.070067,16.457439 C 21.797935,16.545456 21.539242,16.628745 21.282765,16.753482 L 20.909493,16.839292 L 20.722857,17 L 20.235888,16.922956 L 20.334568,16.789951 L 20.497607,16.712723 L 20.832264,16.553974 L 21.207681,16.500344 L 21.402898,16.307272 C 20.770848,16.488155 20.164412,16.7286 19.592315,17 L 19.753209,17.358439 L 19.9,17.062397 L 20.240178,16.976587 L 20.276647,17.188965 L 20.988867,17.274775 L 21.175502,17.656627 L 21.587388,17.826101 L 21.211971,18.162904 C 20.962291,18 20.712756,17.82612 20.463283,17.656627 L 20.090011,17.527913 C 19.9,17.637818 19.764499,17.752682 19.603042,17.866862 L 19.416406,18.291619 H 19.040989 L 19.22977,17.826101 L 19.527958,17.570819 L 19.491489,17.146061 L 19.530103,17.058106 C 19.278068,17.192345 19.034591,17.338282 18.796432,17.49359 L 18.86937,17.504316 L 19.09462,17.630885 L 19.056006,18.098547 L 18.64412,18.478254 L 17.708795,19 L 17.820348,19.411434 L 18.532567,19.707477 L 18.64412,20.215899 L 18.907984,19.666718 L 19.317725,19.495099 L 19.281256,19.24196 L 19.693142,18.52116 L 20.21658,18.817202 L 20.141497,19.15615 L 20.591997,18.988822 L 20.778633,19.368529 L 20.70355,19.623812 L 20.965269,19.707477 L 21.190519,19.9 L 21.115436,20.172994 L 20.4783,20.385373 H 20 L 19.392808,20.683561 H 20.405362 L 20.066414,21.189837 L 19.392808,21.318552 L 19.09462,21.741164 L 18.569036,21.953543 L 18.307317,22.588534 L 17.597243,23.182765 L 17.52216,24.030135 L 17.110274,23.521713 L 16.548221,23.395144 L 16.473137,23.648283 H 16 L 15.46273,24.073039 L 15.387646,24.581461 L 15.42626,25.046978 L 15.799532,25.259358 L 16.061251,25.132788 L 16.322971,24.79384 H 16.586835 C 16.549084,25.09054 16.51063,25.385218 16.473137,25.681969 L 16.923638,25.64121 V 26.106727 L 17.071659,26.529339 C 17.253253,26.640991 17.504849,26.650672 17.708795,26.709539 V 26.615148 L 18.382401,26 L 19,26.488579 L 19.768225,26.40277 L 20.066414,27.207235 L 20.628466,27.335948 L 20.9288,27.9 C 21.538836,28.241834 22.14836,28.556427 22.76298,28.861214 L 22.687896,29.496205 L 22.239541,30.133342 L 22.314625,30.978566 L 22,31.656461 L 21.452238,31.785176 L 21.190519,32.167029 L 21.302072,32.420167 L 20.9288,33.351201 L 20.441831,33.52282 L 20.330278,33.818863 L 20,34.114907 L 20.105028,34.327285 C 20.105028,34.327285 20.070717,34.353839 20.057832,34.363754 C 21.277231,34.920738 22.628038,35.239012 24.054414,35.239012 C 29.380199,35.239012 33.710138,30.909727 33.710138,25.583288 C 33.710138,24.104387 33.489178,23.912042 33.489178,24.197464 L 33.208152,24.514959 C 33.036131,24.312249 32.842217,24.141674 32.646099,23.963632 L 32.214906,24 L 31.822327,23.58178 V 24.133106 L 32.159129,24.38839 L 32.38438,24.641529 L 32.682568,24.30258 C 32.758018,24.443901 32.832883,24.586017 32.907818,24.727337 V 25.14995 L 32.571015,25.531802 L 31.953186,25.95656 L 31.521993,26.387753 C 31.73273,26.371953 31.943595,26.363417 32.159129,26.336267 V 26.634456 L 31.710774,27.734964 L 31.298888,28.200481 L 30.962086,28.921281 V 30.107599 L 31.073638,30.575261 L 30.887002,30.785495 L 30.475116,31.040777 L 30.043923,31.401178 L 30.400033,31.802338 L 29.913064,32.227096 L 30,32.501687 L 29.275927,33.329749 H 28.791103 L 28.379217,33.582886 H 28.115353 V 33.243939 L 28,32.566043 C 27.858927,32.140537 27.708867,31.718529 27.555445,31.296061 C 27.555445,30.984219 27.57327,30.674672 27.591914,30.362882 L 27.780695,29.938125 L 27.516831,29.429702 L 27.536138,28.730355 L 27.180028,28.329195 L 27.358083,27.745689 L 27.068476,27.417468 H 26.562199 L 26.39487,27.226542 L 25.888594,27.544038 L 25.682651,27.312351 L 25.214989,27.713511 C 24.897122,27.353154 24.578689,26.994555 24.260357,26.634456 L 23.88494,25.744181 L 24.223888,25.235759 L 24.035107,25 L 24.446993,24.049442 C 24.784997,23.628982 25.138903,23.225073 25.496015,22.820219 L 26.133151,22.650746 L 26.843226,22.564936 L 27.330195,22.69365 L 28,23.390854 L 28.26552,23.116263 L 28.602322,23.073358 L 29.239458,23.285736 H 29.726428 L 30.06323,22.989693 L 30.213397,22.777315 L 29.874449,22.564936 L 29.314542,22.524176 C 29.158647,22.307922 29,22.079192 28.827572,21.88704 L 28.640936,21.97285 L 28.565853,22.524176 L 28.22905,22.142324 L 28.153967,21.717566 L 27.780695,21.421524 H 27.628383 L 28,21.846281 L 27.853634,22.225989 L 27.555445,22.311798 L 27.742081,21.929946 L 27.405278,21.760472 L 27.104945,21.421524 L 26.542892,21.548092 L 26.469954,21.717566 L 26.131006,21.929946 L 25.94437,22.395463 L 25.476708,22.629293 L 25.270765,22.395463 H 25.04766 V 21.633902 L 25.532484,21.378618 H 25.907901 L 25.832818,21.082575 L 25.532484,20.786533 L 26.038761,20.679271 L 26.319787,20.361775 L 26.542892,19.979922 H 26.954778 L 26.843226,19.68388 L 27.104945,19.514406 V 19.853353 L 27.666998,19.979922 L 28.22905,19.514406 L 28.26552,19.302026 L 28.752489,18.963079 C 28.576456,18.984967 28.401066,19 28.22905,19.048889 V 18.667035 L 28.415686,18.242279 H 28.22905 L 27.817164,18.624131 L 27.703467,18.836509 L 27.817164,19.132552 L 27.628383,19.640974 L 27.330195,19.4715 L 27.068476,19.175457 L 26.65659,19.4715 L 26.506423,18.793605 L 27.216497,18.328088 V 18.072805 L 27.666998,17.776762 L 28.379217,17.607288 L 28.864041,17.776762 L 29.762897,17.946235 L 29.539792,18.201518 H 29.052822 L 29.539792,18.709941 L 29.913064,18.285183 L 30,18.098547 L 30.141319,18.095105 C 30.141319,18.095105 29.657216,17.719228 29.401975,17.548642 C 27.803814,16.503769 25.766676,15.940671 24.054414,15.927565 Z M 24.093028,16.215026 L 25.066967,16.59688 L 24.616467,17.740292 C 24.06674,17.994555 23.547285,18.198614 22.968923,18.377428 L 22.595651,18.969514 L 22.295318,19.138989 L 21.846963,18.248714 L 22.183765,17.909766 V 17.570819 L 21.321379,16.978732 L 21.585243,16.723448 L 22.968923,16.343741 Z M 18.463919,17.72313 C 18.346767,17.806691 18.231729,17.894126 18.118536,17.982705 C 18.235442,17.95904 18.382401,17.929073 18.382401,17.929073 Z M 24.95756,18.062078 L 25.18281,18.315217 L 24.734455,18.611259 L 24.47059,18.441785 L 24.509205,18.188648 L 24.657226,18.231552 Z M 20,18.145742 L 20.390345,18.315217 V 18.611259 H 20.090011 L 19.716739,18.358121 Z M 25.446674,19.121827 H 25.669779 C 25.77994,19.346631 25.882097,19.565338 25.970113,19.799722 L 26.231832,20.05286 L 25.931499,20.348903 L 25.519613,20.434713 L 25.594696,19.926292 V 19.544438 L 25.446674,19.374965 Z M 25.101291,19.630249 L 25.251458,20 L 24.914655,20.17943 L 24.839572,19.713912 Z M 20.808666,20.683561 L 21.145469,20.9367 L 20.922365,21.275647 Z M 30.099699,23.794158 L 29.988147,23.920728 L 30.157621,24.536411 L 30.475116,24.896811 C 30.656659,25.42089 30.835236,25.92112 31.073638,26.422077 C 31.204404,26.422077 31.330403,26.400438 31.457636,26.392044 L 31.185191,26.08313 L 31.335357,25.701276 L 31.037169,25.362329 L 30.530893,24.281127 Z M 14.433015,24.916119 C 14.417803,25.137384 14.398691,25.358211 14.398691,25.583288 C 14.398691,28.925697 16.105113,31.87488 18.691315,33.60863 L 18.907984,32.673306 L 18.682734,32.167029 L 18.719203,31.276754 L 18.421015,30.851996 L 17.74741,30.259911 L 17.071659,29.030688 L 17.26044,28.395697 L 17.185357,28.226223 L 17.408462,27.887276 L 17.708795,27.080666 V 27 L 17.483545,26.911192 L 17.185357,26.954096 L 16.661918,26.572244 L 16.322971,26.149631 L 15.537813,25.937253 L 14.75051,25.471736 C 14.75051,25.471736 14.4963,25.06058 14.433015,24.916119 Z"/>

</svg>
<!-- Lapo Calamandrei - Jakub Steiner -->

