<?xml version="1.0" encoding="UTF-8" standalone="no"?>
<svg
   xmlns:dc="http://purl.org/dc/elements/1.1/"
   xmlns:cc="http://creativecommons.org/ns#"
   xmlns:rdf="http://www.w3.org/1999/02/22-rdf-syntax-ns#"
   xmlns:svg="http://www.w3.org/2000/svg"
   xmlns="http://www.w3.org/2000/svg"
   xmlns:sodipodi="http://sodipodi.sourceforge.net/DTD/sodipodi-0.dtd"
   xmlns:inkscape="http://www.inkscape.org/namespaces/inkscape"
   width="48"
   height="48"
   version="1.1"
   id="svg4"
   sodipodi:docname="emblem-favorite.svg"
   inkscape:version="0.92.1 r15371">
  <metadata
     id="metadata10">
    <rdf:RDF>
      <cc:Work
         rdf:about="">
        <dc:format>image/svg+xml</dc:format>
        <dc:type
           rdf:resource="http://purl.org/dc/dcmitype/StillImage" />
      </cc:Work>
    </rdf:RDF>
  </metadata>
  <defs
     id="defs8" />
  <sodipodi:namedview
     pagecolor="#ffffff"
     bordercolor="#666666"
     borderopacity="1"
     objecttolerance="10"
     gridtolerance="10"
     guidetolerance="10"
     inkscape:pageopacity="0"
     inkscape:pageshadow="2"
     inkscape:window-width="714"
     inkscape:window-height="736"
     id="namedview6"
     showgrid="false"
     inkscape:zoom="4.9166667"
     inkscape:cx="23.832253"
     inkscape:cy="22.779661"
     inkscape:window-x="0"
     inkscape:window-y="26"
     inkscape:window-maximized="0"
     inkscape:current-layer="svg4" />
  <path
     style="opacity:1;fill:#cc0000;stroke:none;stroke-width:1.44428229"
     d="M 13.336093,3.2363044 C 6.9135579,3.2355019 1.7298458,8.4414153 1.7056719,14.863905 C 1.6640828,25.913247 16.935752,36.988802 24.015882,44.951238 C 31.107974,36.969613 46.24273,26.755359 46.407901,14.863905 C 46.497101,8.4419885 41.200014,3.2355008 34.777478,3.2363044 C 30.090356,3.2373292 25.862017,6.0521447 24.052554,10.375912 C 22.244282,6.0549828 18.020136,3.2407382 13.336093,3.2363044 Z"
     id="1"
     inkscape:connector-curvature="0"
     sodipodi:nodetypes="cscsccc" />
</svg>
