<?xml version="1.0" encoding="UTF-8" standalone="no"?>
<svg
   width="48"
   height="48"
   id="svg2"
   version="1.0"
>
  <rect
     r_cy="true"
     r_cx="true"
     style="fill:#aaaaaa;fill-opacity:1;fill-rule:nonzero;stroke:none;stroke-width:1;stroke-linecap:butt;stroke-linejoin:miter;marker:none;marker-start:none;marker-mid:none;marker-end:none;stroke-miterlimit:4;stroke-dashoffset:0;stroke-opacity:1;visibility:visible;display:block;overflow:visible"
     id="rect69"
     width="45.999985"
     height="2.7611761"
     x="2.0000174"
     y="21.738817" />
  <rect
     r_cy="true"
     r_cx="true"
     style="fill:#000000;fill-opacity:1;fill-rule:nonzero;stroke:none;stroke-width:1;stroke-linecap:butt;stroke-linejoin:miter;marker:none;marker-start:none;marker-mid:none;marker-end:none;stroke-miterlimit:4;stroke-dashoffset:0;stroke-opacity:1;visibility:visible;display:block;overflow:visible"
     id="rect255"
     width="45.999985"
     height="0.6831097"
     x="2.0000174"
     y="23.811062" />
  <rect
     r_cy="true"
     r_cx="true"
     style="fill:#000000;fill-opacity:1;fill-rule:nonzero;stroke:none;stroke-width:1;stroke-linecap:butt;stroke-linejoin:miter;marker:none;marker-start:none;marker-mid:none;marker-end:none;stroke-miterlimit:4;stroke-dashoffset:0;stroke-opacity:1;visibility:visible;display:block;overflow:visible"
     id="rect250"
     width="45.999985"
     height="0.70599616"
     x="2.0000174"
     y="21.499992" />
  <path
     type="arc"
     style="fill:#aaaaaa;fill-opacity:1;fill-rule:evenodd;stroke:#000000;stroke-width:1;stroke-linecap:butt;stroke-linejoin:miter;marker:none;marker-start:none;marker-mid:none;marker-end:none;stroke-miterlimit:4;stroke-dasharray:none;stroke-dashoffset:0;stroke-opacity:1;visibility:visible;display:inline;overflow:visible"
     id="path5405"
     cx="66.013466"
     cy="26.231213"
     rx="2.171828"
     ry="2.171828"
     d="M 42.223182,23 C 42.223182,24.10457 41.327752,25 40.223183,25 C 39.118613,25 38.223183,24.10457 38.223183,23 C 38.223183,21.89543 39.118613,21.000001 40.223183,21.000001 C 41.327752,21.000001 42.223182,21.89543 42.223182,23 z"
     r_cx="true"
     r_cy="true" />
  <path
     d="M 38.804458,37.810967 C 38.805872,40.807667 32.663401,43.237268 25.085789,43.237268 C 17.508177,43.237268 11.365706,40.807667 11.367121,37.810967 C 11.365706,34.814267 17.508177,32.384666 25.085789,32.384666 C 32.663401,32.384666 38.805872,34.814267 38.804458,37.810967 z"
     ry="5.6568542"
     rx="14.344166"
     cy="38.706596"
     cx="23.536554"
     id="path2845"
     style="opacity:0.61714286;fill:url(#radialGradient1631);fill-opacity:1;fill-rule:evenodd;stroke:none;stroke-width:1;stroke-linecap:butt;stroke-linejoin:miter;marker:none;marker-start:none;marker-mid:none;marker-end:none;stroke-miterlimit:4;stroke-dasharray:none;stroke-dashoffset:0;stroke-opacity:1;visibility:visible;display:inline;overflow:visible"
     type="arc" />
  <path
     nodetypes="ccccccc"
     id="rect1417"
     d="M 14.671581,7.2521344 L 18.142984,2.9999975 L 32.028594,2.9999975 L 35.499997,7.2521344 L 35.499997,40.441642 L 14.677408,40.441642 L 14.671581,7.2521344 z"
     style="fill:#555555;fill-opacity:1;fill-rule:nonzero;stroke:#000000;stroke-width:1;stroke-linecap:round;stroke-linejoin:miter;marker:none;marker-start:none;marker-mid:none;marker-end:none;stroke-miterlimit:4;stroke-dasharray:none;stroke-dashoffset:0;stroke-opacity:1;visibility:visible;display:inline;overflow:visible" />
  <rect
     y="8.5510559"
     x="17.406624"
     height="4.1960144"
     width="15.31625"
     id="rect4040"
     style="fill:#aaaaaa;fill-opacity:1;fill-rule:nonzero;stroke:#000000;stroke-width:1;stroke-linecap:round;stroke-linejoin:miter;marker:none;marker-start:none;marker-mid:none;marker-end:none;stroke-miterlimit:4;stroke-dasharray:none;stroke-dashoffset:0;stroke-opacity:1;visibility:visible;display:inline;overflow:visible" />
  <rect
     y="16.905727"
     x="17.448704"
     height="4.1959772"
     width="15.274171"
     id="rect4042"
     style="fill:#aaaaaa;fill-opacity:1;fill-rule:nonzero;stroke:#000000;stroke-width:1;stroke-linecap:round;stroke-linejoin:miter;marker:none;marker-start:none;marker-mid:none;marker-end:none;stroke-miterlimit:4;stroke-dasharray:none;stroke-dashoffset:0;stroke-opacity:1;visibility:visible;display:inline;overflow:visible" />
  <rect
     y="25.971109"
     x="17.448704"
     height="11.143646"
     width="15.27419"
     id="rect4044"
     style="fill:#aaaaaa;fill-opacity:1;fill-rule:nonzero;stroke:#000000;stroke-width:1;stroke-linecap:round;stroke-linejoin:miter;marker:none;marker-start:none;marker-mid:none;marker-end:none;stroke-miterlimit:4;stroke-dasharray:none;stroke-dashoffset:0;stroke-opacity:1;visibility:visible;display:inline;overflow:visible" />
</svg>
