<?xml version="1.0" encoding="UTF-8" standalone="no"?>
<svg id="a" height="48px" width="48px" version="1.1">
<path id="1" style="fill:#f9f400;stroke:#000000;stroke-width:1;" d="M 18.3,5.2 C 10.3,7.7 4.4,15 4.4,23.9 c 0,10.8 8.8,19.7 19.7,19.7 10.8,0 19.7,-8.8 19.7,-19.7 0,-8.8 -5.8,-16.2 -13.8,-18.7 0,0 -0.2,9.1 -0.2,9 3.2,2 5.4,5.3 5.4,9.3 0,6.2 -5,11.2 -11.2,11.2 -6.2,0 -11.2,-5 -11.2,-11.2 0,-4.1 2.3,-7.6 5.7,-9.5 L 18.3,5.2 Z"/>
<rect id="2" style="fill:#f9f400;stroke:#000000;stroke-width:1;" x="19.9" y="2.9" width="8.5" height="18" rx="0" ry="0"/>
</svg>
