<?xml version="1.0" encoding="UTF-8" standalone="no"?>
<svg width="48" height="48" id="svg2" version="1.0">
<path id="1" style="fill:#555555;stroke:#000000;stroke-width:1" d="m 46,6.43 -3.2,0 c 0,0 -0.1,-5.2 -0.1,-5.2 l -35,0 c 0,0 0,41.1 -0.1,41.1 l 35,0 0.1,-21 3.347,0 c 0,0 0,-14.9 0,-14.9 z"/>
<path id="2" style="fill:#ccaa99;stroke:#000000;stroke-width:1" d="M 7.609375 1.2421875 L 7.6 42.38 L 36.685547 47.466797 L 36.7 6.3 L 7.6 1.2421875 z"/>
<path id="3" style="opacity:0.7;fill:#555555;stroke:none" d="m 21.356108,15.362478 c -3.858781,-0.759398 -7.85558,1.4407 -9,5 -1.260138,3.821306 1.019314,7.881077 5.045802,8.986719 1.97392,0.542024 3.821119,0.19827 5.348237,-0.459476 l 4.885877,5.154278 c 0,0 3.047749,-2.618193 3.047749,-2.618193 0,0 -3.295042,-3.346121 -4.743425,-5.082465 0.562339,-0.682124 0.788479,-1.090061 1.073978,-1.955825 1.260136,-3.821304 -0.998464,-7.843939 -5.02495,-8.949582 -0.188742,-0.05183 -0.386841,-0.120989 -0.576618,-0.158335 z m -0.517268,2.873305 c 0.05752,0.0136 0.124667,0.03423 0.182091,0.05 2.450136,0.672791 3.79011,3.059323 3.023311,5.384605 -0.766801,2.325283 -3.327555,3.640703 -5.777689,2.967914 -2.450137,-0.672789 -3.79,-3 -3,-5.38 0.748,-2.27 3.2,-3.58 5.595597,-3 z"/>
</svg>
