<?xml version="1.0" encoding="UTF-8" standalone="no"?>
<svg width="48" height="48">
<path id="0" style="fill:#555555;stroke:#000000;stroke-width:1;opacity:1" d="M 46,6 L 42,6 L 42,1 L 7,1 L 7,42 L 42,42 L 42,21 L 46,21 L 46,6 z" />
<path id="1" style="fill:#f9f400;opacity:1;stroke:#000000;stroke-width:1"
d="M 38.7,19 L 35.8,13.3 L 29.5,12.4 L 34,7.9 L 32.8,1.6 L 38.5,4.5 L 44.1,1.5 L 43.1,7.8 L 47.8,12.2 L 41.5,13.2 L 38.7,19 z" />
<path id="2" style="stroke-width:1;fill:#F57900;stroke:#000000;opacity:1" d="M 36,6 L 36,47 L 6,42 L 6,1 L 36,6 z" />
</svg>
