<?xml version="1.0" encoding="UTF-8" standalone="no"?>
<svg width="48" height="48">
<circle id="0" style="fill:#F57900;stroke:none;fill-opacity:1" cx="24" cy="24" r="22.5" />
<path id="1" style="fill:#555555;opacity:1;stroke:none" d="M 40.4,28.8 L 23.7,9.5 L 7.1,28.8 L 14.8,28.8 L 14.8,38.1 L 32.7,38.1 L 32.7,28.8 L 40.4,28.8 z" />
</svg>
