<?xml version="1.0" encoding="UTF-8" standalone="no"?>
<svg width="48" height="48">
<path id="1" style="fill:#555555;stroke:#000000"
d="M 46,6 L 42,6 L 42,1 L 7,1 L 7,42 L 42,42 L 42,21 L 46,21 L 46,6 z"/>
<path id="2" style="fill:#62CC92;stroke:#000000"
d="M 36,6 L 36,47 L 6,42 L 6,1 L 36,6 z"/>
<path id="a" style="fill:#aaaaaa;stroke:#000000"
d="M 12.5,17.4 H 30.5 V 27.9 L 26.9,31.1 H 12.5 Z"/>
<path id="b" style="fill:none;stroke:#000000"
d="M 30.5,27.9 H 26.9 V 30.9"/>
</svg>
