<?xml version="1.0" encoding="UTF-8" standalone="no"?>
<svg width="48" height="48">
<path id="1" style="fill:#555555;stroke:#000000"
d="M 46,6 L 42,6 L 42,1 L 7,1 L 7,42 L 42,42 L 42,21 L 46,21 L 46,6 z"/>
<path id="2" style="fill:#62CC92;stroke:#000000"
d="M 36,6 L 36,47 L 6,42 L 6,1 L 36,6 z"/>
<path id="3"
 style="fill:#555555;stroke:none"
 d="M 12,15 V 34 H 12.9 L 12.9,33 H 14.6 V 34 H 15.4 V 29.5 H 27.5 V 34 H 28.4 V 33 H 30.1 V 34 H 31 V 15 H 30.1 V 15.9 H 28.4 V 15 H 27.5 V 19.4 H 15.4 V 15 H 14.64 V 15.9 H 12.9 V 15 Z M 12.9,17.5 H 14.64 V 19 H 12.9 Z M 28.4,17.5 H 30.1 V 19 H 28.4 Z M 15.4,20.2 H 27.5 V 28.7 H 15.4 Z M 12.9,20.6 H 14.64 V 22.1 H 12.9 Z M 28.4,20.6 H 30.1 V 22.1 H 28.4 Z M 12.9,23.7 H 14.64 V 25.2 H 12.9 Z M 28.4,23.7 H 30.1 V 25.2 H 28.4 Z M 12.9,26.8 H 14.64 V 28.3 H 12.9 Z M 28.4,26.8 H 30.1 V 28.3 H 28.4 Z M 12.9,29.9 H 14.64 V 31.4 H 12.9 Z M 28.4,29.9 H 30.1 V 31.4 H 28.4 Z"/>
</svg>
