<?xml version="1.0" encoding="UTF-8" standalone="no"?>
<svg width="48" height="48">
<circle id="0" style="fill:#009FF9;stroke:none;opacity:1" cx="24" cy="24" r="22.5"/>
<path id="1" style="fill:#555555;opacity:1;stroke:none"
d="M 15.8,40.3 L 15.8,31.5 L 8.5,31.5 L 23.2,14.5 L 14.8,14.5 L 14.8,9.9 L 33.9,9.9 L 33.9,14.5 L 25.4,14.5 L 40.1,31.5 L 32.8,31.5 L 32.8,40.3 L 15.8,40.3 z"/>
</svg>
