<?xml version="1.0" encoding="UTF-8" standalone="no"?>
<svg width="48" height="48">
<path id="1" style="fill:#555555;stroke:#000000"
d="M 46,6 L 42,6 L 42,1 L 7,1 L 7,42 L 42,42 L 42,21 L 46,21 L 46,6 z"/>
<path id="2" style="fill:#CC53B9;stroke:#000000"
d="M 36,6 L 36,47 L 6,42 L 6,1 L 36,6 z"/>
<path id="p1" style="opacity:1;fill:#aaaaaa;stroke:#000000;stroke-width:1"
d="M 25.3,15.2 L 29.8,20.2 V 33.8 H 14 V 15.2 Z"/>
<path id="p5" style="opacity:1;fill:none;stroke:#000000;stroke-width:1"
d="M 25.3,15.2 V 20.2 H 29.8"/>
</svg>
