<?xml version="1.0" encoding="UTF-8" standalone="no"?>
<svg width="48" height="48">
<path id="1" style="fill:#555555;stroke:#000000"
d="M 46,6 L 42,6 L 42,1 L 7,1 L 7,42 L 42,42 L 42,21 L 46,21 L 46,6 z"/>
<path id="2" style="fill:#7272FF;stroke:#000000"
d="M 36,6 L 36,47 L 6,42 L 6,1 L 36,6 z"/>
<path id="3" style="fill:#555555;stroke:none"
d="M 31 15 L 17.4 16.9 L 17.4 28.3 C 14.9 27.8 12.1 29.3 12 31.5 C 11.8 32.8 13.3 34 15 34 C 17.9 34.1 20.1 32.5 20.1 30.6 L 20.1 20.8 L 28.3 19.7 L 28.9 27 C 25.9 26.4 23.6 27.6 23 29.5 C 22.6 30.6 23.3 32 24.6 32.4 C 27.3 33.4 31.1 31.4 31 29.1 L 31 15 z"/>
</svg>
